…
### Ceramic Assemblage Data

As an example, we’ll use the ceramic assemblage at Cuyamungue, a Tewa
Pueblo in the Northern Rio Grande region north of Santa Fe, New Mexico.

``` r
library(tidyverse)

ceramics <- read_csv("cuyamungue.csv") |> arrange(start)

ceramics
#> # A tibble: 24 × 5
#>    type                        count start   end diagnostic
#>    <chr>                       <dbl> <dbl> <dbl> <lgl>     
#>  1 Plain gray                    506   900  1700 FALSE     
#>  2 Indented corrugated             6  1050  1250 TRUE      
#>  3 Santa Fe B/W                   16  1150  1350 TRUE      
#>  4 SF/Wiyo B/W                   338  1150  1350 TRUE      
#>  5 Smeared indented corrugated   585  1250  1425 TRUE      
#>  6 Wiyo B/W                      178  1280  1400 TRUE      
#>  7 Galisteo B/W                    0  1280  1400 FALSE     
#>  8 Glaze on R-Y                   82  1315  1450 FALSE     
#>  9 Glaze polychrome               23  1315  1700 FALSE     
#> 10 Glaze A                         3  1315  1425 FALSE     
#> # ℹ 14 more rows
```
…
